[
  {
    "date": "Jan 1, 2021, 12:00:00 AM",
    "price": 0.175049
  },
  {
    "date": "Jan 2, 2021, 12:00:00 AM",
    "price": 0.177335
  },
  {
    "date": "Jan 3, 2021, 12:00:00 AM",
    "price": 0.20566
  },
  {
    "date": "Jan 4, 2021, 12:00:00 AM",
    "price": 0.225846
  },
  {
    "date": "Jan 5, 2021, 12:00:00 AM",
    "price": 0.258647
  },
  {
    "date": "Jan 6, 2021, 12:00:00 AM",
    "price": 0.332784
  },
  {
    "date": "Jan 7, 2021, 12:00:00 AM",
    "price": 0.29805
  },
  {
    "date": "Jan 8, 2021, 12:00:00 AM",
    "price": 0.303959
  },
  {
    "date": "Jan 9, 2021, 12:00:00 AM",
    "price": 0.330163
  },
  {
    "date": "Jan 10, 2021, 12:00:00 AM",
    "price": 0.302328
  },
  {
    "date": "Jan 11, 2021, 12:00:00 AM",
    "price": 0.275906
  },
  {
    "date": "Jan 12, 2021, 12:00:00 AM",
    "price": 0.287594
  },
  {
    "date": "Jan 13, 2021, 12:00:00 AM",
    "price": 0.312734
  },
  {
    "date": "Jan 14, 2021, 12:00:00 AM",
    "price": 0.311028
  },
  {
    "date": "Jan 15, 2021, 12:00:00 AM",
    "price": 0.302516
  },
  {
    "date": "Jan 16, 2021, 12:00:00 AM",
    "price": 0.351231
  },
  {
    "date": "Jan 17, 2021, 12:00:00 AM",
    "price": 0.381294
  },
  {
    "date": "Jan 18, 2021, 12:00:00 AM",
    "price": 0.371004
  },
  {
    "date": "Jan 19, 2021, 12:00:00 AM",
    "price": 0.36777
  },
  {
    "date": "Jan 20, 2021, 12:00:00 AM",
    "price": 0.37551
  },
  {
    "date": "Jan 21, 2021, 12:00:00 AM",
    "price": 0.307722
  },
  {
    "date": "Jan 22, 2021, 12:00:00 AM",
    "price": 0.349855
  },
  {
    "date": "Jan 23, 2021, 12:00:00 AM",
    "price": 0.345559
  },
  {
    "date": "Jan 24, 2021, 12:00:00 AM",
    "price": 0.353172
  },
  {
    "date": "Jan 25, 2021, 12:00:00 AM",
    "price": 0.343094
  },
  {
    "date": "Jan 26, 2021, 12:00:00 AM",
    "price": 0.343527
  },
  {
    "date": "Jan 27, 2021, 12:00:00 AM",
    "price": 0.311971
  },
  {
    "date": "Jan 28, 2021, 12:00:00 AM",
    "price": 0.34375
  },
  {
    "date": "Jan 29, 2021, 12:00:00 AM",
    "price": 0.347593
  },
  {
    "date": "Jan 30, 2021, 12:00:00 AM",
    "price": 0.363623
  },
  {
    "date": "Jan 31, 2021, 12:00:00 AM",
    "price": 0.345023
  },
  {
    "date": "Feb 1, 2021, 12:00:00 AM",
    "price": 0.408341
  },
  {
    "date": "Feb 2, 2021, 12:00:00 AM",
    "price": 0.425759
  },
  {
    "date": "Feb 3, 2021, 12:00:00 AM",
    "price": 0.441872
  },
  {
    "date": "Feb 4, 2021, 12:00:00 AM",
    "price": 0.439519
  },
  {
    "date": "Feb 5, 2021, 12:00:00 AM",
    "price": 0.53935
  },
  {
    "date": "Feb 6, 2021, 12:00:00 AM",
    "price": 0.633867
  },
  {
    "date": "Feb 7, 2021, 12:00:00 AM",
    "price": 0.662569
  },
  {
    "date": "Feb 8, 2021, 12:00:00 AM",
    "price": 0.677404
  },
  {
    "date": "Feb 9, 2021, 12:00:00 AM",
    "price": 0.705831
  },
  {
    "date": "Feb 10, 2021, 12:00:00 AM",
    "price": 0.940364
  },
  {
    "date": "Feb 11, 2021, 12:00:00 AM",
    "price": 0.929292
  },
  {
    "date": "Feb 12, 2021, 12:00:00 AM",
    "price": 0.924877
  },
  {
    "date": "Feb 13, 2021, 12:00:00 AM",
    "price": 0.911147
  },
  {
    "date": "Feb 14, 2021, 12:00:00 AM",
    "price": 0.844426
  },
  {
    "date": "Feb 15, 2021, 12:00:00 AM",
    "price": 0.8602
  },
  {
    "date": "Feb 16, 2021, 12:00:00 AM",
    "price": 0.870393
  },
  {
    "date": "Feb 17, 2021, 12:00:00 AM",
    "price": 0.891702
  },
  {
    "date": "Feb 18, 2021, 12:00:00 AM",
    "price": 0.913752
  },
  {
    "date": "Feb 19, 2021, 12:00:00 AM",
    "price": 0.925894
  },
  {
    "date": "Feb 20, 2021, 12:00:00 AM",
    "price": 1.116149
  },
  {
    "date": "Feb 21, 2021, 12:00:00 AM",
    "price": 1.099821
  },
  {
    "date": "Feb 22, 2021, 12:00:00 AM",
    "price": 1.096866
  },
  {
    "date": "Feb 23, 2021, 12:00:00 AM",
    "price": 0.963973
  },
  {
    "date": "Feb 24, 2021, 12:00:00 AM",
    "price": 1.048148
  },
  {
    "date": "Feb 25, 2021, 12:00:00 AM",
    "price": 1.07517
  },
  {
    "date": "Feb 26, 2021, 12:00:00 AM",
    "price": 1.241585
  },
  {
    "date": "Feb 27, 2021, 12:00:00 AM",
    "price": 1.316575
  },
  {
    "date": "Feb 28, 2021, 12:00:00 AM",
    "price": 1.307673
  },
  {
    "date": "Mar 1, 2021, 12:00:00 AM",
    "price": 1.2962
  },
  {
    "date": "Mar 2, 2021, 12:00:00 AM",
    "price": 1.224643
  },
  {
    "date": "Mar 3, 2021, 12:00:00 AM",
    "price": 1.214324
  },
  {
    "date": "Mar 4, 2021, 12:00:00 AM",
    "price": 1.11249
  },
  {
    "date": "Mar 5, 2021, 12:00:00 AM",
    "price": 1.158227
  },
  {
    "date": "Mar 6, 2021, 12:00:00 AM",
    "price": 1.129016
  },
  {
    "date": "Mar 7, 2021, 12:00:00 AM",
    "price": 1.131882
  },
  {
    "date": "Mar 8, 2021, 12:00:00 AM",
    "price": 1.118466
  },
  {
    "date": "Mar 9, 2021, 12:00:00 AM",
    "price": 1.1972
  },
  {
    "date": "Mar 10, 2021, 12:00:00 AM",
    "price": 1.133092
  },
  {
    "date": "Mar 11, 2021, 12:00:00 AM",
    "price": 1.124155
  },
  {
    "date": "Mar 12, 2021, 12:00:00 AM",
    "price": 1.03205
  },
  {
    "date": "Mar 13, 2021, 12:00:00 AM",
    "price": 1.101309
  },
  {
    "date": "Mar 14, 2021, 12:00:00 AM",
    "price": 1.055119
  },
  {
    "date": "Mar 15, 2021, 12:00:00 AM",
    "price": 1.030954
  },
  {
    "date": "Mar 16, 2021, 12:00:00 AM",
    "price": 1.249261
  },
  {
    "date": "Mar 17, 2021, 12:00:00 AM",
    "price": 1.377406
  },
  {
    "date": "Mar 18, 2021, 12:00:00 AM",
    "price": 1.23123
  },
  {
    "date": "Mar 19, 2021, 12:00:00 AM",
    "price": 1.295932
  },
  {
    "date": "Mar 20, 2021, 12:00:00 AM",
    "price": 1.200409
  },
  {
    "date": "Mar 21, 2021, 12:00:00 AM",
    "price": 1.186839
  },
  {
    "date": "Mar 22, 2021, 12:00:00 AM",
    "price": 1.103464
  },
  {
    "date": "Mar 23, 2021, 12:00:00 AM",
    "price": 1.116343
  },
  {
    "date": "Mar 24, 2021, 12:00:00 AM",
    "price": 1.070167
  },
  {
    "date": "Mar 25, 2021, 12:00:00 AM",
    "price": 1.096429
  },
  {
    "date": "Mar 26, 2021, 12:00:00 AM",
    "price": 1.214457
  },
  {
    "date": "Mar 27, 2021, 12:00:00 AM",
    "price": 1.176785
  },
  {
    "date": "Mar 28, 2021, 12:00:00 AM",
    "price": 1.189546
  },
  {
    "date": "Mar 29, 2021, 12:00:00 AM",
    "price": 1.202812
  },
  {
    "date": "Mar 30, 2021, 12:00:00 AM",
    "price": 1.212645
  },
  {
    "date": "Mar 31, 2021, 12:00:00 AM",
    "price": 1.191349
  },
  {
    "date": "Apr 1, 2021, 12:00:00 AM",
    "price": 1.18282
  },
  {
    "date": "Apr 2, 2021, 12:00:00 AM",
    "price": 1.190254
  },
  {
    "date": "Apr 3, 2021, 12:00:00 AM",
    "price": 1.163307
  },
  {
    "date": "Apr 4, 2021, 12:00:00 AM",
    "price": 1.181938
  },
  {
    "date": "Apr 5, 2021, 12:00:00 AM",
    "price": 1.211655
  },
  {
    "date": "Apr 6, 2021, 12:00:00 AM",
    "price": 1.251885
  },
  {
    "date": "Apr 7, 2021, 12:00:00 AM",
    "price": 1.174041
  },
  {
    "date": "Apr 8, 2021, 12:00:00 AM",
    "price": 1.218895
  },
  {
    "date": "Apr 9, 2021, 12:00:00 AM",
    "price": 1.201904
  },
  {
    "date": "Apr 10, 2021, 12:00:00 AM",
    "price": 1.217928
  },
  {
    "date": "Apr 11, 2021, 12:00:00 AM",
    "price": 1.263122
  },
  {
    "date": "Apr 12, 2021, 12:00:00 AM",
    "price": 1.315495
  },
  {
    "date": "Apr 13, 2021, 12:00:00 AM",
    "price": 1.412372
  },
  {
    "date": "Apr 14, 2021, 12:00:00 AM",
    "price": 1.451656
  },
  {
    "date": "Apr 15, 2021, 12:00:00 AM",
    "price": 1.478656
  },
  {
    "date": "Apr 16, 2021, 12:00:00 AM",
    "price": 1.410876
  },
  {
    "date": "Apr 17, 2021, 12:00:00 AM",
    "price": 1.370865
  },
  {
    "date": "Apr 18, 2021, 12:00:00 AM",
    "price": 1.276922
  },
  {
    "date": "Apr 19, 2021, 12:00:00 AM",
    "price": 1.195854
  },
  {
    "date": "Apr 20, 2021, 12:00:00 AM",
    "price": 1.267353
  },
  {
    "date": "Apr 21, 2021, 12:00:00 AM",
    "price": 1.20451
  },
  {
    "date": "Apr 22, 2021, 12:00:00 AM",
    "price": 1.14634
  },
  {
    "date": "Apr 23, 2021, 12:00:00 AM",
    "price": 1.156832
  },
  {
    "date": "Apr 24, 2021, 12:00:00 AM",
    "price": 1.102116
  },
  {
    "date": "Apr 25, 2021, 12:00:00 AM",
    "price": 1.089866
  },
  {
    "date": "Apr 26, 2021, 12:00:00 AM",
    "price": 1.234457
  },
  {
    "date": "Apr 27, 2021, 12:00:00 AM",
    "price": 1.307929
  },
  {
    "date": "Apr 28, 2021, 12:00:00 AM",
    "price": 1.318858
  },
  {
    "date": "Apr 29, 2021, 12:00:07 AM",
    "price": 1.33852199457147
  }
]