[
  {
    "date": "Jan 1, 2021, 12:00:00 AM",
    "price": 29359.9
  },
  {
    "date": "Jan 2, 2021, 12:00:00 AM",
    "price": 32193.3
  },
  {
    "date": "Jan 3, 2021, 12:00:00 AM",
    "price": 32958.9
  },
  {
    "date": "Jan 4, 2021, 12:00:00 AM",
    "price": 32022.6
  },
  {
    "date": "Jan 5, 2021, 12:00:00 AM",
    "price": 33991.5
  },
  {
    "date": "Jan 6, 2021, 12:00:00 AM",
    "price": 36793.2
  },
  {
    "date": "Jan 7, 2021, 12:00:00 AM",
    "price": 39460.2
  },
  {
    "date": "Jan 8, 2021, 12:00:00 AM",
    "price": 40599.3
  },
  {
    "date": "Jan 9, 2021, 12:00:00 AM",
    "price": 40151.9
  },
  {
    "date": "Jan 10, 2021, 12:00:00 AM",
    "price": 38192.2
  },
  {
    "date": "Jan 11, 2021, 12:00:00 AM",
    "price": 35544.3
  },
  {
    "date": "Jan 12, 2021, 12:00:00 AM",
    "price": 34076.1
  },
  {
    "date": "Jan 13, 2021, 12:00:00 AM",
    "price": 37382.2
  },
  {
    "date": "Jan 14, 2021, 12:00:00 AM",
    "price": 39175.7
  },
  {
    "date": "Jan 15, 2021, 12:00:00 AM",
    "price": 36845.8
  },
  {
    "date": "Jan 16, 2021, 12:00:00 AM",
    "price": 36019.5
  },
  {
    "date": "Jan 17, 2021, 12:00:00 AM",
    "price": 35839.6
  },
  {
    "date": "Jan 18, 2021, 12:00:00 AM",
    "price": 36613.2
  },
  {
    "date": "Jan 19, 2021, 12:00:00 AM",
    "price": 36002.9
  },
  {
    "date": "Jan 20, 2021, 12:00:00 AM",
    "price": 35476.3
  },
  {
    "date": "Jan 21, 2021, 12:00:00 AM",
    "price": 30842.1
  },
  {
    "date": "Jan 22, 2021, 12:00:00 AM",
    "price": 33000.5
  },
  {
    "date": "Jan 23, 2021, 12:00:00 AM",
    "price": 32088.9
  },
  {
    "date": "Jan 24, 2021, 12:00:00 AM",
    "price": 32241.3
  },
  {
    "date": "Jan 25, 2021, 12:00:00 AM",
    "price": 32252.3
  },
  {
    "date": "Jan 26, 2021, 12:00:00 AM",
    "price": 32502.1
  },
  {
    "date": "Jan 27, 2021, 12:00:00 AM",
    "price": 30404.0
  },
  {
    "date": "Jan 28, 2021, 12:00:00 AM",
    "price": 33374.8
  },
  {
    "date": "Jan 29, 2021, 12:00:00 AM",
    "price": 34301.8
  },
  {
    "date": "Jan 30, 2021, 12:00:00 AM",
    "price": 34283.1
  },
  {
    "date": "Jan 31, 2021, 12:00:00 AM",
    "price": 33108.1
  },
  {
    "date": "Feb 1, 2021, 12:00:00 AM",
    "price": 33515.7
  },
  {
    "date": "Feb 2, 2021, 12:00:00 AM",
    "price": 35485.2
  },
  {
    "date": "Feb 3, 2021, 12:00:00 AM",
    "price": 37646.8
  },
  {
    "date": "Feb 4, 2021, 12:00:00 AM",
    "price": 36982.1
  },
  {
    "date": "Feb 5, 2021, 12:00:00 AM",
    "price": 38297.6
  },
  {
    "date": "Feb 6, 2021, 12:00:00 AM",
    "price": 39256.6
  },
  {
    "date": "Feb 7, 2021, 12:00:00 AM",
    "price": 38852.9
  },
  {
    "date": "Feb 8, 2021, 12:00:00 AM",
    "price": 46395.7
  },
  {
    "date": "Feb 9, 2021, 12:00:00 AM",
    "price": 46508.6
  },
  {
    "date": "Feb 10, 2021, 12:00:00 AM",
    "price": 44836.0
  },
  {
    "date": "Feb 11, 2021, 12:00:00 AM",
    "price": 47990.7
  },
  {
    "date": "Feb 12, 2021, 12:00:00 AM",
    "price": 47371.7
  },
  {
    "date": "Feb 13, 2021, 12:00:00 AM",
    "price": 47168.7
  },
  {
    "date": "Feb 14, 2021, 12:00:00 AM",
    "price": 48643.4
  },
  {
    "date": "Feb 15, 2021, 12:00:00 AM",
    "price": 47936.3
  },
  {
    "date": "Feb 16, 2021, 12:00:00 AM",
    "price": 49169.7
  },
  {
    "date": "Feb 17, 2021, 12:00:00 AM",
    "price": 52079.2
  },
  {
    "date": "Feb 18, 2021, 12:00:00 AM",
    "price": 51582.2
  },
  {
    "date": "Feb 19, 2021, 12:00:00 AM",
    "price": 55906.6
  },
  {
    "date": "Feb 20, 2021, 12:00:00 AM",
    "price": 55923.7
  },
  {
    "date": "Feb 21, 2021, 12:00:00 AM",
    "price": 57433.8
  },
  {
    "date": "Feb 22, 2021, 12:00:00 AM",
    "price": 54111.8
  },
  {
    "date": "Feb 23, 2021, 12:00:00 AM",
    "price": 48911.2
  },
  {
    "date": "Feb 24, 2021, 12:00:00 AM",
    "price": 49697.5
  },
  {
    "date": "Feb 25, 2021, 12:00:00 AM",
    "price": 46928.5
  },
  {
    "date": "Feb 26, 2021, 12:00:00 AM",
    "price": 46345.6
  },
  {
    "date": "Feb 27, 2021, 12:00:00 AM",
    "price": 46136.7
  },
  {
    "date": "Feb 28, 2021, 12:00:00 AM",
    "price": 45164.0
  },
  {
    "date": "Mar 1, 2021, 12:00:00 AM",
    "price": 49595.5
  },
  {
    "date": "Mar 2, 2021, 12:00:00 AM",
    "price": 48424.2
  },
  {
    "date": "Mar 3, 2021, 12:00:00 AM",
    "price": 50395.1
  },
  {
    "date": "Mar 4, 2021, 12:00:00 AM",
    "price": 48428.0
  },
  {
    "date": "Mar 5, 2021, 12:00:00 AM",
    "price": 48792.5
  },
  {
    "date": "Mar 6, 2021, 12:00:00 AM",
    "price": 48855.6
  },
  {
    "date": "Mar 7, 2021, 12:00:00 AM",
    "price": 50982.3
  },
  {
    "date": "Mar 8, 2021, 12:00:00 AM",
    "price": 52311.0
  },
  {
    "date": "Mar 9, 2021, 12:00:00 AM",
    "price": 54879.0
  },
  {
    "date": "Mar 10, 2021, 12:00:00 AM",
    "price": 55851.9
  },
  {
    "date": "Mar 11, 2021, 12:00:00 AM",
    "price": 57799.5
  },
  {
    "date": "Mar 12, 2021, 12:00:00 AM",
    "price": 57265.1
  },
  {
    "date": "Mar 13, 2021, 12:00:00 AM",
    "price": 61195.3
  },
  {
    "date": "Mar 14, 2021, 12:00:00 AM",
    "price": 59113.7
  },
  {
    "date": "Mar 15, 2021, 12:00:00 AM",
    "price": 55791.3
  },
  {
    "date": "Mar 16, 2021, 12:00:00 AM",
    "price": 56889.7
  },
  {
    "date": "Mar 17, 2021, 12:00:00 AM",
    "price": 58913.5
  },
  {
    "date": "Mar 18, 2021, 12:00:00 AM",
    "price": 57656.0
  },
  {
    "date": "Mar 19, 2021, 12:00:00 AM",
    "price": 58088.0
  },
  {
    "date": "Mar 20, 2021, 12:00:00 AM",
    "price": 58093.4
  },
  {
    "date": "Mar 21, 2021, 12:00:00 AM",
    "price": 57383.8
  },
  {
    "date": "Mar 22, 2021, 12:00:00 AM",
    "price": 54158.3
  },
  {
    "date": "Mar 23, 2021, 12:00:00 AM",
    "price": 54452.5
  },
  {
    "date": "Mar 24, 2021, 12:00:00 AM",
    "price": 52325.4
  },
  {
    "date": "Mar 25, 2021, 12:00:00 AM",
    "price": 51322.3
  },
  {
    "date": "Mar 26, 2021, 12:00:00 AM",
    "price": 55036.1
  },
  {
    "date": "Mar 27, 2021, 12:00:00 AM",
    "price": 55862.9
  },
  {
    "date": "Mar 28, 2021, 12:00:00 AM",
    "price": 55765.2
  },
  {
    "date": "Mar 29, 2021, 12:00:00 AM",
    "price": 57616.2
  },
  {
    "date": "Mar 30, 2021, 12:00:00 AM",
    "price": 58771.3
  },
  {
    "date": "Mar 31, 2021, 12:00:00 AM",
    "price": 58763.7
  },
  {
    "date": "Apr 1, 2021, 12:00:00 AM",
    "price": 58718.3
  },
  {
    "date": "Apr 2, 2021, 12:00:00 AM",
    "price": 58977.3
  },
  {
    "date": "Apr 3, 2021, 12:00:00 AM",
    "price": 57059.9
  },
  {
    "date": "Apr 4, 2021, 12:00:00 AM",
    "price": 58199.9
  },
  {
    "date": "Apr 5, 2021, 12:00:00 AM",
    "price": 58993.4
  },
  {
    "date": "Apr 6, 2021, 12:00:00 AM",
    "price": 57996.3
  },
  {
    "date": "Apr 7, 2021, 12:00:00 AM",
    "price": 55948.7
  },
  {
    "date": "Apr 8, 2021, 12:00:00 AM",
    "price": 58077.4
  },
  {
    "date": "Apr 9, 2021, 12:00:00 AM",
    "price": 58118.7
  },
  {
    "date": "Apr 10, 2021, 12:00:00 AM",
    "price": 59748.4
  },
  {
    "date": "Apr 11, 2021, 12:00:00 AM",
    "price": 59978.7
  },
  {
    "date": "Apr 12, 2021, 12:00:00 AM",
    "price": 59863.8
  },
  {
    "date": "Apr 13, 2021, 12:00:00 AM",
    "price": 63540.9
  },
  {
    "date": "Apr 14, 2021, 12:00:00 AM",
    "price": 62980.4
  },
  {
    "date": "Apr 15, 2021, 12:00:00 AM",
    "price": 63216.0
  },
  {
    "date": "Apr 16, 2021, 12:00:00 AM",
    "price": 61379.7
  },
  {
    "date": "Apr 17, 2021, 12:00:00 AM",
    "price": 60041.9
  },
  {
    "date": "Apr 18, 2021, 12:00:00 AM",
    "price": 56207.1
  },
  {
    "date": "Apr 19, 2021, 12:00:00 AM",
    "price": 55646.1
  },
  {
    "date": "Apr 20, 2021, 12:00:00 AM",
    "price": 56483.2
  },
  {
    "date": "Apr 21, 2021, 12:00:00 AM",
    "price": 53820.2
  },
  {
    "date": "Apr 22, 2021, 12:00:00 AM",
    "price": 51729.5
  },
  {
    "date": "Apr 23, 2021, 12:00:00 AM",
    "price": 51143.6
  },
  {
    "date": "Apr 24, 2021, 12:00:00 AM",
    "price": 50088.9
  },
  {
    "date": "Apr 25, 2021, 12:00:00 AM",
    "price": 48963.6
  },
  {
    "date": "Apr 26, 2021, 12:00:00 AM",
    "price": 54020.5
  },
  {
    "date": "Apr 27, 2021, 12:00:00 AM",
    "price": 55036.5
  },
  {
    "date": "Apr 28, 2021, 12:00:00 AM",
    "price": 55362.7
  },
  {
    "date": "Apr 29, 2021, 12:00:01 AM",
    "price": 54800.768363809715
  }
]