[
  {
    "date": "Jan 1, 2021, 12:00:00 AM",
    "price": 8.3007
  },
  {
    "date": "Jan 2, 2021, 12:00:00 AM",
    "price": 9.2198
  },
  {
    "date": "Jan 3, 2021, 12:00:00 AM",
    "price": 10.1587
  },
  {
    "date": "Jan 4, 2021, 12:00:00 AM",
    "price": 9.5172
  },
  {
    "date": "Jan 5, 2021, 12:00:00 AM",
    "price": 9.7495
  },
  {
    "date": "Jan 6, 2021, 12:00:00 AM",
    "price": 10.1027
  },
  {
    "date": "Jan 7, 2021, 12:00:00 AM",
    "price": 9.6516
  },
  {
    "date": "Jan 8, 2021, 12:00:00 AM",
    "price": 9.3158
  },
  {
    "date": "Jan 9, 2021, 12:00:00 AM",
    "price": 9.775
  },
  {
    "date": "Jan 10, 2021, 12:00:00 AM",
    "price": 9.3089
  },
  {
    "date": "Jan 11, 2021, 12:00:00 AM",
    "price": 8.2969
  },
  {
    "date": "Jan 12, 2021, 12:00:00 AM",
    "price": 8.2997
  },
  {
    "date": "Jan 13, 2021, 12:00:00 AM",
    "price": 10.9394
  },
  {
    "date": "Jan 14, 2021, 12:00:00 AM",
    "price": 14.4724
  },
  {
    "date": "Jan 15, 2021, 12:00:00 AM",
    "price": 13.1936
  },
  {
    "date": "Jan 16, 2021, 12:00:00 AM",
    "price": 17.9535
  },
  {
    "date": "Jan 17, 2021, 12:00:00 AM",
    "price": 17.0978
  },
  {
    "date": "Jan 18, 2021, 12:00:00 AM",
    "price": 16.5827
  },
  {
    "date": "Jan 19, 2021, 12:00:00 AM",
    "price": 16.41
  },
  {
    "date": "Jan 20, 2021, 12:00:00 AM",
    "price": 17.9953
  },
  {
    "date": "Jan 21, 2021, 12:00:00 AM",
    "price": 15.9341
  },
  {
    "date": "Jan 22, 2021, 12:00:00 AM",
    "price": 17.2203
  },
  {
    "date": "Jan 23, 2021, 12:00:00 AM",
    "price": 18.7353
  },
  {
    "date": "Jan 24, 2021, 12:00:00 AM",
    "price": 17.99
  },
  {
    "date": "Jan 25, 2021, 12:00:00 AM",
    "price": 17.2256
  },
  {
    "date": "Jan 26, 2021, 12:00:00 AM",
    "price": 17.1305
  },
  {
    "date": "Jan 27, 2021, 12:00:00 AM",
    "price": 15.5174
  },
  {
    "date": "Jan 28, 2021, 12:00:00 AM",
    "price": 16.9086
  },
  {
    "date": "Jan 29, 2021, 12:00:00 AM",
    "price": 16.8137
  },
  {
    "date": "Jan 30, 2021, 12:00:00 AM",
    "price": 16.5571
  },
  {
    "date": "Jan 31, 2021, 12:00:00 AM",
    "price": 16.124
  },
  {
    "date": "Feb 1, 2021, 12:00:00 AM",
    "price": 16.4453
  },
  {
    "date": "Feb 2, 2021, 12:00:00 AM",
    "price": 17.1979
  },
  {
    "date": "Feb 3, 2021, 12:00:00 AM",
    "price": 20.8961
  },
  {
    "date": "Feb 4, 2021, 12:00:00 AM",
    "price": 19.7193
  },
  {
    "date": "Feb 5, 2021, 12:00:00 AM",
    "price": 20.8701
  },
  {
    "date": "Feb 6, 2021, 12:00:00 AM",
    "price": 20.3982
  },
  {
    "date": "Feb 7, 2021, 12:00:00 AM",
    "price": 19.8
  },
  {
    "date": "Feb 8, 2021, 12:00:00 AM",
    "price": 23.0014
  },
  {
    "date": "Feb 9, 2021, 12:00:00 AM",
    "price": 23.1203
  },
  {
    "date": "Feb 10, 2021, 12:00:00 AM",
    "price": 23.6074
  },
  {
    "date": "Feb 11, 2021, 12:00:00 AM",
    "price": 25.0308
  },
  {
    "date": "Feb 12, 2021, 12:00:00 AM",
    "price": 28.7012
  },
  {
    "date": "Feb 13, 2021, 12:00:00 AM",
    "price": 27.9795
  },
  {
    "date": "Feb 14, 2021, 12:00:00 AM",
    "price": 26.95
  },
  {
    "date": "Feb 15, 2021, 12:00:00 AM",
    "price": 27.782
  },
  {
    "date": "Feb 16, 2021, 12:00:00 AM",
    "price": 30.035
  },
  {
    "date": "Feb 17, 2021, 12:00:00 AM",
    "price": 32.021
  },
  {
    "date": "Feb 18, 2021, 12:00:00 AM",
    "price": 31.0534
  },
  {
    "date": "Feb 19, 2021, 12:00:00 AM",
    "price": 34.8199
  },
  {
    "date": "Feb 20, 2021, 12:00:00 AM",
    "price": 39.0168
  },
  {
    "date": "Feb 21, 2021, 12:00:00 AM",
    "price": 39.5653
  },
  {
    "date": "Feb 22, 2021, 12:00:00 AM",
    "price": 37.6691
  },
  {
    "date": "Feb 23, 2021, 12:00:00 AM",
    "price": 34.6054
  },
  {
    "date": "Feb 24, 2021, 12:00:00 AM",
    "price": 33.6993
  },
  {
    "date": "Feb 25, 2021, 12:00:00 AM",
    "price": 31.2009
  },
  {
    "date": "Feb 26, 2021, 12:00:00 AM",
    "price": 31.4514
  },
  {
    "date": "Feb 27, 2021, 12:00:00 AM",
    "price": 33.4897
  },
  {
    "date": "Feb 28, 2021, 12:00:00 AM",
    "price": 33.8421
  },
  {
    "date": "Mar 1, 2021, 12:00:00 AM",
    "price": 35.695
  },
  {
    "date": "Mar 2, 2021, 12:00:00 AM",
    "price": 36.2141
  },
  {
    "date": "Mar 3, 2021, 12:00:00 AM",
    "price": 37.0544
  },
  {
    "date": "Mar 4, 2021, 12:00:00 AM",
    "price": 35.2609
  },
  {
    "date": "Mar 5, 2021, 12:00:00 AM",
    "price": 33.6203
  },
  {
    "date": "Mar 6, 2021, 12:00:00 AM",
    "price": 33.3719
  },
  {
    "date": "Mar 7, 2021, 12:00:00 AM",
    "price": 35.1074
  },
  {
    "date": "Mar 8, 2021, 12:00:00 AM",
    "price": 34.9963
  },
  {
    "date": "Mar 9, 2021, 12:00:00 AM",
    "price": 38.2223
  },
  {
    "date": "Mar 10, 2021, 12:00:00 AM",
    "price": 37.5815
  },
  {
    "date": "Mar 11, 2021, 12:00:00 AM",
    "price": 36.9036
  },
  {
    "date": "Mar 12, 2021, 12:00:00 AM",
    "price": 35.9826
  },
  {
    "date": "Mar 13, 2021, 12:00:00 AM",
    "price": 37.1467
  },
  {
    "date": "Mar 14, 2021, 12:00:00 AM",
    "price": 36.5
  },
  {
    "date": "Mar 15, 2021, 12:00:00 AM",
    "price": 34.2838
  },
  {
    "date": "Mar 16, 2021, 12:00:00 AM",
    "price": 35.4176
  },
  {
    "date": "Mar 17, 2021, 12:00:00 AM",
    "price": 36.1435
  },
  {
    "date": "Mar 18, 2021, 12:00:00 AM",
    "price": 35.3481
  },
  {
    "date": "Mar 19, 2021, 12:00:00 AM",
    "price": 38.1888
  },
  {
    "date": "Mar 20, 2021, 12:00:00 AM",
    "price": 37.2679
  },
  {
    "date": "Mar 21, 2021, 12:00:00 AM",
    "price": 36.6443
  },
  {
    "date": "Mar 22, 2021, 12:00:00 AM",
    "price": 35.2592
  },
  {
    "date": "Mar 23, 2021, 12:00:00 AM",
    "price": 34.2249
  },
  {
    "date": "Mar 24, 2021, 12:00:00 AM",
    "price": 30.2597
  },
  {
    "date": "Mar 25, 2021, 12:00:00 AM",
    "price": 29.8528
  },
  {
    "date": "Mar 26, 2021, 12:00:00 AM",
    "price": 33.1939
  },
  {
    "date": "Mar 27, 2021, 12:00:00 AM",
    "price": 32.6457
  },
  {
    "date": "Mar 28, 2021, 12:00:00 AM",
    "price": 32.2417
  },
  {
    "date": "Mar 29, 2021, 12:00:00 AM",
    "price": 34.3677
  },
  {
    "date": "Mar 30, 2021, 12:00:00 AM",
    "price": 33.973
  },
  {
    "date": "Mar 31, 2021, 12:00:00 AM",
    "price": 37.058
  },
  {
    "date": "Apr 1, 2021, 12:00:00 AM",
    "price": 37.4372
  },
  {
    "date": "Apr 2, 2021, 12:00:00 AM",
    "price": 40.9987
  },
  {
    "date": "Apr 3, 2021, 12:00:00 AM",
    "price": 41.368
  },
  {
    "date": "Apr 4, 2021, 12:00:00 AM",
    "price": 44.29
  },
  {
    "date": "Apr 5, 2021, 12:00:00 AM",
    "price": 45.8068
  },
  {
    "date": "Apr 6, 2021, 12:00:00 AM",
    "price": 43.3137
  },
  {
    "date": "Apr 7, 2021, 12:00:00 AM",
    "price": 39.5855
  },
  {
    "date": "Apr 8, 2021, 12:00:00 AM",
    "price": 41.3316
  },
  {
    "date": "Apr 9, 2021, 12:00:00 AM",
    "price": 40.7749
  },
  {
    "date": "Apr 10, 2021, 12:00:00 AM",
    "price": 41.5868
  },
  {
    "date": "Apr 11, 2021, 12:00:00 AM",
    "price": 41.3089
  },
  {
    "date": "Apr 12, 2021, 12:00:00 AM",
    "price": 40.4819
  },
  {
    "date": "Apr 13, 2021, 12:00:00 AM",
    "price": 42.9524
  },
  {
    "date": "Apr 14, 2021, 12:00:00 AM",
    "price": 42.5227
  },
  {
    "date": "Apr 15, 2021, 12:00:00 AM",
    "price": 43.4838
  },
  {
    "date": "Apr 16, 2021, 12:00:00 AM",
    "price": 41.4484
  },
  {
    "date": "Apr 17, 2021, 12:00:00 AM",
    "price": 42.1857
  },
  {
    "date": "Apr 18, 2021, 12:00:00 AM",
    "price": 37.36675
  },
  {
    "date": "Apr 19, 2021, 12:00:00 AM",
    "price": 34.75285
  },
  {
    "date": "Apr 20, 2021, 12:00:00 AM",
    "price": 35.47729
  },
  {
    "date": "Apr 21, 2021, 12:00:00 AM",
    "price": 33.7887
  },
  {
    "date": "Apr 22, 2021, 12:00:00 AM",
    "price": 32.95611
  },
  {
    "date": "Apr 23, 2021, 12:00:00 AM",
    "price": 32.24968
  },
  {
    "date": "Apr 24, 2021, 12:00:00 AM",
    "price": 29.0496
  },
  {
    "date": "Apr 25, 2021, 12:00:00 AM",
    "price": 29.75951
  },
  {
    "date": "Apr 26, 2021, 12:00:00 AM",
    "price": 33.40414
  },
  {
    "date": "Apr 27, 2021, 12:00:00 AM",
    "price": 34.8796
  },
  {
    "date": "Apr 28, 2021, 12:00:00 AM",
    "price": 34.84905
  },
  {
    "date": "Apr 29, 2021, 12:00:09 AM",
    "price": 33.84695042485361
  }
]