[
  {
    "date": "Jan 1, 2021, 12:00:00 AM",
    "price": 4.7353
  },
  {
    "date": "Jan 2, 2021, 12:00:00 AM",
    "price": 4.8564
  },
  {
    "date": "Jan 3, 2021, 12:00:00 AM",
    "price": 5.4475
  },
  {
    "date": "Jan 4, 2021, 12:00:00 AM",
    "price": 5.4145
  },
  {
    "date": "Jan 5, 2021, 12:00:00 AM",
    "price": 6.2514
  },
  {
    "date": "Jan 6, 2021, 12:00:00 AM",
    "price": 6.4157
  },
  {
    "date": "Jan 7, 2021, 12:00:00 AM",
    "price": 6.2545
  },
  {
    "date": "Jan 8, 2021, 12:00:00 AM",
    "price": 5.8785
  },
  {
    "date": "Jan 9, 2021, 12:00:00 AM",
    "price": 6.22
  },
  {
    "date": "Jan 10, 2021, 12:00:00 AM",
    "price": 5.9777
  },
  {
    "date": "Jan 11, 2021, 12:00:00 AM",
    "price": 5.2346
  },
  {
    "date": "Jan 12, 2021, 12:00:00 AM",
    "price": 5.5824
  },
  {
    "date": "Jan 13, 2021, 12:00:00 AM",
    "price": 6.3616
  },
  {
    "date": "Jan 14, 2021, 12:00:00 AM",
    "price": 6.9526
  },
  {
    "date": "Jan 15, 2021, 12:00:00 AM",
    "price": 7.3796
  },
  {
    "date": "Jan 16, 2021, 12:00:00 AM",
    "price": 8.3968
  },
  {
    "date": "Jan 17, 2021, 12:00:00 AM",
    "price": 8.689
  },
  {
    "date": "Jan 18, 2021, 12:00:00 AM",
    "price": 9.1918
  },
  {
    "date": "Jan 19, 2021, 12:00:00 AM",
    "price": 8.6185
  },
  {
    "date": "Jan 20, 2021, 12:00:00 AM",
    "price": 8.982
  },
  {
    "date": "Jan 21, 2021, 12:00:00 AM",
    "price": 7.6027
  },
  {
    "date": "Jan 22, 2021, 12:00:00 AM",
    "price": 8.7141
  },
  {
    "date": "Jan 23, 2021, 12:00:00 AM",
    "price": 9.3413
  },
  {
    "date": "Jan 24, 2021, 12:00:00 AM",
    "price": 11.9807
  },
  {
    "date": "Jan 25, 2021, 12:00:00 AM",
    "price": 11.2958
  },
  {
    "date": "Jan 26, 2021, 12:00:00 AM",
    "price": 13.9
  },
  {
    "date": "Jan 27, 2021, 12:00:00 AM",
    "price": 14.7801
  },
  {
    "date": "Jan 28, 2021, 12:00:00 AM",
    "price": 14.1003
  },
  {
    "date": "Jan 29, 2021, 12:00:00 AM",
    "price": 15.7845
  },
  {
    "date": "Jan 30, 2021, 12:00:00 AM",
    "price": 19.5918
  },
  {
    "date": "Jan 31, 2021, 12:00:00 AM",
    "price": 17.7039
  },
  {
    "date": "Feb 1, 2021, 12:00:00 AM",
    "price": 20.5
  },
  {
    "date": "Feb 2, 2021, 12:00:00 AM",
    "price": 19.0312
  },
  {
    "date": "Feb 3, 2021, 12:00:00 AM",
    "price": 19.7156
  },
  {
    "date": "Feb 4, 2021, 12:00:00 AM",
    "price": 20.1487
  },
  {
    "date": "Feb 5, 2021, 12:00:00 AM",
    "price": 21.1554
  },
  {
    "date": "Feb 6, 2021, 12:00:00 AM",
    "price": 19.2133
  },
  {
    "date": "Feb 7, 2021, 12:00:00 AM",
    "price": 18.6786
  },
  {
    "date": "Feb 8, 2021, 12:00:00 AM",
    "price": 19.3143
  },
  {
    "date": "Feb 9, 2021, 12:00:00 AM",
    "price": 19.5158
  },
  {
    "date": "Feb 10, 2021, 12:00:00 AM",
    "price": 20.7041
  },
  {
    "date": "Feb 11, 2021, 12:00:00 AM",
    "price": 21.4502
  },
  {
    "date": "Feb 12, 2021, 12:00:00 AM",
    "price": 22.6423
  },
  {
    "date": "Feb 13, 2021, 12:00:00 AM",
    "price": 21.7764
  },
  {
    "date": "Feb 14, 2021, 12:00:00 AM",
    "price": 20.8182
  },
  {
    "date": "Feb 15, 2021, 12:00:00 AM",
    "price": 20.0821
  },
  {
    "date": "Feb 16, 2021, 12:00:00 AM",
    "price": 20.4998
  },
  {
    "date": "Feb 17, 2021, 12:00:00 AM",
    "price": 21.508
  },
  {
    "date": "Feb 18, 2021, 12:00:00 AM",
    "price": 21.167
  },
  {
    "date": "Feb 19, 2021, 12:00:00 AM",
    "price": 20.0674
  },
  {
    "date": "Feb 20, 2021, 12:00:00 AM",
    "price": 28.7059
  },
  {
    "date": "Feb 21, 2021, 12:00:00 AM",
    "price": 28.7683
  },
  {
    "date": "Feb 22, 2021, 12:00:00 AM",
    "price": 27.7601
  },
  {
    "date": "Feb 23, 2021, 12:00:00 AM",
    "price": 24.8447
  },
  {
    "date": "Feb 24, 2021, 12:00:00 AM",
    "price": 25.2214
  },
  {
    "date": "Feb 25, 2021, 12:00:00 AM",
    "price": 23.251
  },
  {
    "date": "Feb 26, 2021, 12:00:00 AM",
    "price": 23.137
  },
  {
    "date": "Feb 27, 2021, 12:00:00 AM",
    "price": 23.5148
  },
  {
    "date": "Feb 28, 2021, 12:00:00 AM",
    "price": 22.1974
  },
  {
    "date": "Mar 1, 2021, 12:00:00 AM",
    "price": 25.7178
  },
  {
    "date": "Mar 2, 2021, 12:00:00 AM",
    "price": 25.5358
  },
  {
    "date": "Mar 3, 2021, 12:00:00 AM",
    "price": 25.3704
  },
  {
    "date": "Mar 4, 2021, 12:00:00 AM",
    "price": 28.2687
  },
  {
    "date": "Mar 5, 2021, 12:00:00 AM",
    "price": 28.3315
  },
  {
    "date": "Mar 6, 2021, 12:00:00 AM",
    "price": 28.5201
  },
  {
    "date": "Mar 7, 2021, 12:00:00 AM",
    "price": 34.3148
  },
  {
    "date": "Mar 8, 2021, 12:00:00 AM",
    "price": 33.165
  },
  {
    "date": "Mar 9, 2021, 12:00:00 AM",
    "price": 32.8339
  },
  {
    "date": "Mar 10, 2021, 12:00:00 AM",
    "price": 30.8809
  },
  {
    "date": "Mar 11, 2021, 12:00:00 AM",
    "price": 30.9915
  },
  {
    "date": "Mar 12, 2021, 12:00:00 AM",
    "price": 30.8985
  },
  {
    "date": "Mar 13, 2021, 12:00:00 AM",
    "price": 32.5366
  },
  {
    "date": "Mar 14, 2021, 12:00:00 AM",
    "price": 30.7396
  },
  {
    "date": "Mar 15, 2021, 12:00:00 AM",
    "price": 29.7184
  },
  {
    "date": "Mar 16, 2021, 12:00:00 AM",
    "price": 30.0
  },
  {
    "date": "Mar 17, 2021, 12:00:00 AM",
    "price": 31.3276
  },
  {
    "date": "Mar 18, 2021, 12:00:00 AM",
    "price": 29.967
  },
  {
    "date": "Mar 19, 2021, 12:00:00 AM",
    "price": 33.2514
  },
  {
    "date": "Mar 20, 2021, 12:00:00 AM",
    "price": 32.0342
  },
  {
    "date": "Mar 21, 2021, 12:00:00 AM",
    "price": 32.9156
  },
  {
    "date": "Mar 22, 2021, 12:00:00 AM",
    "price": 32.8211
  },
  {
    "date": "Mar 23, 2021, 12:00:00 AM",
    "price": 31.0002
  },
  {
    "date": "Mar 24, 2021, 12:00:00 AM",
    "price": 27.4078
  },
  {
    "date": "Mar 25, 2021, 12:00:00 AM",
    "price": 26.5118
  },
  {
    "date": "Mar 26, 2021, 12:00:00 AM",
    "price": 28.9782
  },
  {
    "date": "Mar 27, 2021, 12:00:00 AM",
    "price": 28.1578
  },
  {
    "date": "Mar 28, 2021, 12:00:00 AM",
    "price": 27.843
  },
  {
    "date": "Mar 29, 2021, 12:00:00 AM",
    "price": 29.0185
  },
  {
    "date": "Mar 30, 2021, 12:00:00 AM",
    "price": 28.5605
  },
  {
    "date": "Mar 31, 2021, 12:00:00 AM",
    "price": 28.038
  },
  {
    "date": "Apr 1, 2021, 12:00:00 AM",
    "price": 28.6848
  },
  {
    "date": "Apr 2, 2021, 12:00:00 AM",
    "price": 30.2211
  },
  {
    "date": "Apr 3, 2021, 12:00:00 AM",
    "price": 29.355
  },
  {
    "date": "Apr 4, 2021, 12:00:00 AM",
    "price": 30.9002
  },
  {
    "date": "Apr 5, 2021, 12:00:00 AM",
    "price": 30.785
  },
  {
    "date": "Apr 6, 2021, 12:00:00 AM",
    "price": 31.2328
  },
  {
    "date": "Apr 7, 2021, 12:00:00 AM",
    "price": 28.5023
  },
  {
    "date": "Apr 8, 2021, 12:00:00 AM",
    "price": 30.2033
  },
  {
    "date": "Apr 9, 2021, 12:00:00 AM",
    "price": 29.5108
  },
  {
    "date": "Apr 10, 2021, 12:00:00 AM",
    "price": 29.7649
  },
  {
    "date": "Apr 11, 2021, 12:00:00 AM",
    "price": 29.9003
  },
  {
    "date": "Apr 12, 2021, 12:00:00 AM",
    "price": 36.6907
  },
  {
    "date": "Apr 13, 2021, 12:00:00 AM",
    "price": 35.4216
  },
  {
    "date": "Apr 14, 2021, 12:00:00 AM",
    "price": 36.1112
  },
  {
    "date": "Apr 15, 2021, 12:00:00 AM",
    "price": 37.7447
  },
  {
    "date": "Apr 16, 2021, 12:00:00 AM",
    "price": 36.1211
  },
  {
    "date": "Apr 17, 2021, 12:00:00 AM",
    "price": 34.8123
  },
  {
    "date": "Apr 18, 2021, 12:00:00 AM",
    "price": 31.7062
  },
  {
    "date": "Apr 19, 2021, 12:00:00 AM",
    "price": 31.4223
  },
  {
    "date": "Apr 20, 2021, 12:00:00 AM",
    "price": 31.9898
  },
  {
    "date": "Apr 21, 2021, 12:00:00 AM",
    "price": 33.4146
  },
  {
    "date": "Apr 22, 2021, 12:00:00 AM",
    "price": 33.9543
  },
  {
    "date": "Apr 23, 2021, 12:00:00 AM",
    "price": 32.9372
  },
  {
    "date": "Apr 24, 2021, 12:00:00 AM",
    "price": 30.1715
  },
  {
    "date": "Apr 25, 2021, 12:00:00 AM",
    "price": 33.896
  },
  {
    "date": "Apr 26, 2021, 12:00:00 AM",
    "price": 38.19
  },
  {
    "date": "Apr 27, 2021, 12:00:00 AM",
    "price": 39.608
  },
  {
    "date": "Apr 28, 2021, 12:00:00 AM",
    "price": 40.876
  },
  {
    "date": "Apr 29, 2021, 12:00:09 AM",
    "price": 42.41091074517885
  }
]